{
	"dft_filename": "waveup.dat",
	"output_dir_name": "oxygen_K",
	"wavefunction_col_no": 2,
	"spin_setting": "none",
	"atomic_number": 8,
	"n_bound": 1,
	"l_bound": 0,
	"mls_bound": [0],
	"energy_free": 10,
	"ls_free": [1],
	"mls_free": [-1,0,1],
	"acc_voltage": 200,
	"x_pixel": 1024,
	"y_pixel": 1024,
	"qx_dim": 32,
	"qy_dim": 32,
	"samples_hankeltrafo": 5000
}
